<?xml version="1.0" encoding="utf-8"?>
<!-- Generator: Adobe Illustrator 24.1.1, SVG Export Plug-In . SVG Version: 6.00 Build 0)  -->
<svg version="1.1" id="レイヤー_1" xmlns="http://www.w3.org/2000/svg" xmlns:xlink="http://www.w3.org/1999/xlink" x="0px"
	 y="0px" viewBox="0 0 329.3 76.3" style="enable-background:new 0 0 329.3 76.3;" xml:space="preserve">
<style type="text/css">
	.st0{fill:#FFF000;}
	.st1{fill:#4C4948;}
	.st2{fill:#FFFFFF;}
	.st3{fill:#36BDEF;}
	.st4{fill:#717071;}
	.st5{fill:#C8C9CA;}
</style>
<g>
	<g>
		<g>
			<rect x="296.2" y="24.5" class="st0" width="16.5" height="16.1"/>
			<rect x="279.7" y="40.5" class="st1" width="16.5" height="16.1"/>
			<rect x="296.2" y="40.5" class="st2" width="16.5" height="16.1"/>
			<rect x="312.8" y="40.5" class="st1" width="16.5" height="16.1"/>
			<rect x="296.2" y="56.6" class="st3" width="16.5" height="16.1"/>
		</g>
		<g>
			<path class="st1" d="M307.1,46.4c1.8,0,2.9,0.8,2.8,2.5c0,1-0.5,2.1-1.7,3.5c-0.9,1-2.4,2.4-2.7,2.7c-1.4,1.3-3.3-0.8-2-2.1
				c0.3-0.3,1.4-1.2,2.5-2.3c0.1-0.1,0.2-0.3,0.2-0.4v-1c0-0.1-0.1-0.3-0.3-0.3h-6c-1.7,0-1.7-2.6,0-2.6H307.1z M300.9,45.1
				c-1.6,0-1.6-2.4,0-2.4h6.9c1.6,0,1.6,2.4,0,2.4H300.9z"/>
		</g>
		<g>
			<path class="st2" d="M326.1,52.7c1.4,1.2-0.6,3.4-2,2.1l-2.6-2.4c-1.2,1-2.9,2.2-3.5,2.5c-1.6,1-3.2-1.3-1.7-2.4
				c0.5-0.4,3.3-2,4.9-3.6c0.2-0.2,0.3-0.4,0.3-0.6v-2.2c0-0.1-0.1-0.2-0.3-0.2h-4.3c-1.7,0-1.7-2.5,0-2.5h5.6
				c1.5,0,2.6,1.1,2.6,2.4c0,0.8-0.1,1.4-0.3,2.1c-0.3,1-0.8,1.8-1.5,2.5L326.1,52.7z"/>
		</g>
		<path class="st2" d="M292.7,41.9c-1.2,0-2.2,0.9-2.5,2c-0.3-0.1-0.6-0.1-0.9-0.1h-6.5c-1.7,0-1.7,2.5,0,2.5h5.5
			c0.1,0,0.1,0,0.2,0.1c0,0,0.1,0.1,0.1,0.2v3c0,0.2-0.1,0.4-0.2,0.6c-1,1.1-2.7,2.3-3.1,2.5c-1.4,1.1,0.3,3.3,1.7,2.2
			c1.1-0.9,2.4-1.9,3.3-2.9c0.9-1,1.4-2.1,1.6-3.5c0-0.4,0.1-1,0.1-1.5c0.2,0.1,0.5,0.1,0.7,0.1c1.4,0,2.6-1.2,2.6-2.6
			C295.3,43,294.1,41.9,292.7,41.9z M292.7,45.5c-0.6,0-1.1-0.5-1.1-1.1c0-0.6,0.5-1.1,1.1-1.1s1.1,0.5,1.1,1.1
			C293.7,45,293.3,45.5,292.7,45.5z"/>
	</g>
	<g id="XMLID_163_">
		<path id="XMLID_176_" class="st1" d="M120.1,57.5c-0.6,3-3.6,5.5-6.5,5.5h-8.8c-0.4,0-0.7,0.2-0.9,0.5l-2.2,5.4H85.2l2.2-5.4
			c0.1-0.3-0.1-0.5-0.4-0.5h-8.5c-2.9,0-4.8-2.5-4.2-5.5c0.6-2.9,3.6-5.5,6.5-5.5h35C118.8,52.1,120.7,54.6,120.1,57.5z M122.9,44.4
			c-0.6,2.9-3.6,5.5-6.5,5.5H81.3c-2.9,0-4.8-2.5-4.1-5.5c0.6-3,3.6-5.5,6.5-5.5h35C121.6,38.9,123.5,41.5,122.9,44.4z"/>
		<path id="XMLID_173_" class="st1" d="M145.7,53.3h-14.3c-3.5,0-5.8-3.1-5-6.6c0.8-3.6,4.4-6.7,7.9-6.7h14.3c3.5,0,5.8,3.1,5,6.7
			C152.8,50.3,149.2,53.3,145.7,53.3z M172.5,50l-4.7,12.4c-1.4,3.5-5.5,6.6-9,6.6H132c-3.5,0-5.8-3.1-5-6.6
			c0.7-3.6,4.4-6.7,7.9-6.7h18.8c0.4,0,0.7-0.2,0.8-0.5l2-5.2H172.5z"/>
		<path id="XMLID_171_" class="st1" d="M240.6,69.3c-10.9,1.5-9.1-7.9-9.1-7.9l4.6-21.3h18l-3,14.4c-0.1,0.3,0.2,0.5,0.5,0.5l17-2.5
			c3.5-0.6,6.5,1.8,6.6,5.2c0.1,3.4-2.7,6.8-6.2,7.4L240.6,69.3z"/>
		<path class="st1" d="M220.3,49.9c-0.2,0-0.3,0-0.5,0l0.7-1.8c0,0,3.3-7.7-4.6-7.7h-32.7c-3.5,0-7,3-7.8,6.6
			c-0.7,3.6,1.5,6.6,5,6.6h20c0.3,0,0.5,0.3,0.4,0.5L194.8,69h17.1l2.3-5.5c1.5,1.7,3.7,2.8,6.1,2.8c4.5,0,8.2-3.7,8.2-8.2
			S224.8,49.9,220.3,49.9z M220.3,60.3c-1.3,0-2.3-1-2.3-2.3c0-1.3,1-2.3,2.3-2.3s2.3,1,2.3,2.3C222.6,59.3,221.6,60.3,220.3,60.3z"
			/>
	</g>
	<g>
		<polygon class="st0" points="34.3,37.9 26.9,37.9 19.2,37.9 11.2,37.9 4.8,37.9 4.8,57.1 34.3,57.1 		"/>
		<polygon class="st1" points="58.3,37.9 50.6,37.9 42.6,37.9 34.9,37.9 34.3,37.9 34.3,57.1 63.8,57.1 63.8,37.9 		"/>
		<path class="st1" d="M4.8,57.1v15.9c0,1.8,1.4,3.2,3.2,3.2h26.3V57.1H4.8z"/>
		<path class="st3" d="M34.3,76.3h26.3c1.8,0,3.2-1.5,3.2-3.2V57.1H34.3V76.3z"/>
		<g id="XMLID_295_">
			<path id="XMLID_305_" class="st1" d="M10.4,27.3L0.3,21.7C0,22-0.1,22.8,0.2,23.7l2.5,6.6L10.4,27.3z"/>
			<polygon id="XMLID_304_" class="st1" points="25.1,21.8 15,16.2 7.6,19 17.7,24.6 17.7,24.6 			"/>
			<polygon id="XMLID_303_" class="st1" points="39.8,16.2 29.7,10.6 22.2,13.4 32.4,19 32.4,19.1 			"/>
			<polygon id="XMLID_302_" class="st1" points="54.5,10.7 44.4,5.1 36.9,7.9 47.1,13.5 47.1,13.5 			"/>
			<path id="XMLID_301_" class="st1" d="M61.7,8l-2.5-6.6c-0.3-0.9-1-1.5-1.5-1.3l-6.1,2.3L61.7,8z"/>
			<polygon id="XMLID_300_" class="st4" points="61.7,8 61.7,8 51.6,2.3 44.4,5.1 54.5,10.7 61.7,8 			"/>
			<polygon id="XMLID_298_" class="st4" points="47.1,13.5 36.9,7.9 29.7,10.6 39.8,16.2 47.1,13.5 			"/>
			<polygon id="XMLID_297_" class="st4" points="32.4,19 22.2,13.4 15,16.2 25.1,21.8 32.4,19.1 			"/>
			<path id="XMLID_296_" class="st4" d="M17.7,24.6L7.6,19l-7.1,2.7c-0.1,0-0.1,0-0.1,0.1l10.1,5.6L17.7,24.6L17.7,24.6z"/>
		</g>
		<g id="XMLID_284_">
			<path id="XMLID_294_" class="st1" d="M11,29.1l-7.5,8.8c-0.4-0.1-0.8-0.9-0.8-1.7v-7.1H11z"/>
			<polygon id="XMLID_293_" class="st1" points="26.7,29.1 19.2,37.9 11.2,37.9 18.7,29.1 18.7,29.1 			"/>
			<polygon id="XMLID_292_" class="st1" points="42.4,29.1 34.9,37.9 26.9,37.9 34.4,29.1 34.4,29.1 			"/>
			<polygon id="XMLID_291_" class="st1" points="58.1,29.1 50.6,37.9 42.6,37.9 50.1,29.1 50.1,29.1 			"/>
			<path id="XMLID_289_" class="st1" d="M65.8,29.1v7.1c0,1-0.4,1.8-0.9,1.8h-6.5L65.8,29.1z"/>
			<polygon id="XMLID_288_" class="st4" points="65.8,29.1 65.8,29.1 58.3,37.9 50.6,37.9 58.1,29.1 65.8,29.1 			"/>
			<polygon id="XMLID_287_" class="st4" points="50.1,29.1 42.6,37.9 34.9,37.9 42.4,29.1 50.1,29.1 			"/>
			<polygon id="XMLID_286_" class="st4" points="34.4,29.1 26.9,37.9 19.2,37.9 26.7,29.1 34.4,29.1 			"/>
			<path id="XMLID_285_" class="st4" d="M18.7,29.1l-7.5,8.8H3.7c-0.1,0-0.1,0-0.2,0l7.5-8.8L18.7,29.1L18.7,29.1z"/>
		</g>
		<g>
			<path class="st5" d="M15.8,29.9v2.8c0,1-0.8,1.9-1.8,1.9c0,0-0.1,0-0.1,0H6.6c-0.1,0-0.2,0-0.3,0c-0.9-0.1-1.6-0.9-1.6-1.9v-7.3
				c0-0.4,0.1-0.8,0.4-1.2c0.4-0.5,0.9-0.8,1.6-0.8h2.8c0.5,0,1,0.2,1.4,0.6l4.4,4.4c0.2,0.2,0.3,0.4,0.4,0.6
				C15.7,29.3,15.8,29.6,15.8,29.9z"/>
			<g>
				<g>
					<path class="st4" d="M6.5,26.3c-0.5,0-0.9-0.4-0.9-0.9c0-0.5,0.4-0.9,0.9-0.9s0.9,0.4,0.9,0.9C7.4,25.9,7,26.3,6.5,26.3z"/>
				</g>
			</g>
			<g>
				<g>
					<path class="st4" d="M6.5,33.7c-0.5,0-0.9-0.4-0.9-0.9s0.4-0.9,0.9-0.9s0.9,0.4,0.9,0.9S7,33.7,6.5,33.7z"/>
				</g>
			</g>
			<g>
				<g>
					<path class="st4" d="M13.8,33.7c-0.5,0-0.9-0.4-0.9-0.9c0-0.5,0.4-0.9,0.9-0.9s0.9,0.4,0.9,0.9C14.8,33.3,14.4,33.7,13.8,33.7z
						"/>
				</g>
			</g>
		</g>
	</g>
</g>
</svg>
